<?xml version="1.0" encoding="UTF-8"?>
<!DOCTYPE svg PUBLIC "-//W3C//DTD SVG 1.1//EN" "http://www.w3.org/Graphics/SVG/1.1/DTD/svg11.dtd">
<!-- Creator: CorelDRAW 2018 (64 Bit) -->
<svg xmlns="http://www.w3.org/2000/svg" xml:space="preserve" width="23px" height="22px" version="1.1" style="shape-rendering:geometricPrecision; text-rendering:geometricPrecision; image-rendering:optimizeQuality; fill-rule:evenodd; clip-rule:evenodd"
viewBox="0 0 0.04 0.037"
 xmlns:xlink="http://www.w3.org/1999/xlink">
 <defs>
  <style type="text/css">
   <![CDATA[
    .fil0 {fill:#76C04E;fill-rule:nonzero}
   ]]>
  </style>
 </defs>
 <g id="Camada_x0020_1">
  <metadata id="CorelCorpID_0Corel-Layer"/>
  <path class="fil0" d="M0.037 0l-0.036 0.016c-0.001,0 -0.001,0.003 0,0.004l0.007 0.003 0.022 -0.015c0,0 0,0.001 0,0.001l-0.018 0.017c0,0 0,0.001 0,0.001l0 0.008c0,0.003 0.003,0.003 0.004,0.001l0.004 -0.007 0.009 0.005c0.002,0.001 0.003,0 0.003,-0.001l0.008 -0.03c0,-0.002 -0.002,-0.004 -0.003,-0.003z"/>
 </g>
</svg>
