<?xml version="1.0" encoding="UTF-8"?>
<!DOCTYPE svg PUBLIC "-//W3C//DTD SVG 1.1//EN" "http://www.w3.org/Graphics/SVG/1.1/DTD/svg11.dtd">
<!-- Creator: CorelDRAW 2018 (64 Bit) -->
<svg xmlns="http://www.w3.org/2000/svg" xml:space="preserve" width="76px" height="80px" version="1.1" style="shape-rendering:geometricPrecision; text-rendering:geometricPrecision; image-rendering:optimizeQuality; fill-rule:evenodd; clip-rule:evenodd"
viewBox="0 0 0.496 0.52"
 xmlns:xlink="http://www.w3.org/1999/xlink">
 <defs>
  <style type="text/css">
   <![CDATA[
    .fil0 {fill:url(#id0)}
   ]]>
  </style>
  <linearGradient id="id0" gradientUnits="userSpaceOnUse" x1="0" y1="0.26" x2="0.496" y2="0.26">
   <stop offset="0" style="stop-opacity:1; stop-color:#76C04E"/>
   <stop offset="1" style="stop-opacity:1; stop-color:#3B72C2"/>
  </linearGradient>
 </defs>
 <g id="Camada_x0020_1">
  <metadata id="CorelCorpID_0Corel-Layer"/>
  <path class="fil0" d="M0.238 0.498l0 -0.113 0.01 0 0 0.115c0,0.005 -0.01,0.007 -0.01,-0.002zm-0.126 -0.13l0 0.019c0,0.01 0.016,0.013 0.016,-0.002 0,-0.012 0.002,-0.026 -0.008,-0.026 -0.005,0 -0.008,0.004 -0.008,0.009zm-0.053 -0.112c0,0.006 0.006,0.008 0.013,0.008l0.043 0c0.006,0 0.011,-0.001 0.012,-0.006 0.002,-0.005 -0.001,-0.01 -0.007,-0.01l-0.053 0c-0.005,0 -0.008,0.003 -0.008,0.008zm0.279 0.035c0,0.005 0,0.01 0.007,0.01l0.087 0c0.011,0 0.008,-0.016 0.001,-0.016l-0.089 0c-0.002,0 -0.006,0.004 -0.006,0.006zm-0.059 0.034c0,0.004 0.002,0.009 0.006,0.009l0.147 0c0.01,0 0.01,-0.015 0,-0.015l-0.147 0c-0.002,0 -0.006,0.004 -0.006,0.006zm-0.175 -0.24c0,-0.006 -0.001,-0.01 0.004,-0.015 0.009,-0.008 0.028,-0.005 0.028,0.013 0,0.022 -0.032,0.019 -0.032,0.002zm-0.017 -0.004c0,0.046 0.065,0.044 0.065,0.001 0,-0.018 -0.015,-0.032 -0.033,-0.032 -0.016,0 -0.032,0.015 -0.032,0.031zm-0.012 0.124l0.061 0 0 0.013 -0.061 0 0 -0.013zm-0.016 -0.009l0 0.03c0,0.005 0.003,0.009 0.008,0.009l0.077 0c0.005,0 0.008,-0.004 0.008,-0.009 0,-0.024 0.004,-0.037 -0.011,-0.037 -0.011,0 -0.073,-0.002 -0.078,0.002 -0.002,0.001 -0.004,0.003 -0.004,0.005zm0.282 0.324l-0.005 0c-0.005,-0.001 -0.01,-0.003 -0.014,-0.008 -0.003,-0.004 -0.004,-0.01 -0.006,-0.017 -0.009,-0.034 -0.018,-0.069 -0.026,-0.103 -0.003,-0.01 -0.005,-0.007 -0.026,-0.007l0 0.112c0,0.015 -0.01,0.022 -0.02,0.023l-0.004 0c-0.009,-0.001 -0.018,-0.007 -0.018,-0.019l0 -0.116 -0.024 0 -0.01 0.037c-0.003,0.013 -0.006,0.024 -0.009,0.036 -0.002,0.011 -0.01,0.048 -0.016,0.055 -0.007,0.009 -0.023,0.009 -0.032,0.002 -0.003,-0.002 -0.007,-0.008 -0.007,-0.012 0,-0.019 0.016,-0.058 0.017,-0.075 -0.007,0.003 -0.018,0.004 -0.026,0.004 -0.023,0 -0.049,-0.024 -0.049,-0.047l-0.034 0c-0.018,0 -0.032,-0.02 -0.032,-0.038l0 -0.234c0,-0.012 0.005,-0.021 0.011,-0.027 0.003,-0.004 0.007,-0.006 0.011,-0.008 0.005,-0.003 0.009,-0.003 0.015,-0.004 0,-0.007 0.002,-0.01 0.008,-0.012 0.003,-0.001 0.012,-0.003 0.016,-0.003 -0.001,-0.004 -0.005,-0.01 -0.008,-0.014 -0.007,-0.011 0.003,-0.016 0.01,-0.023 0.014,-0.014 0.015,-0.009 0.032,0.002 0.003,-0.006 0.002,-0.024 0.011,-0.024l0.026 0c0.009,0 0.011,0.017 0.011,0.024 0.022,-0.011 0.017,-0.018 0.035,0 0.018,0.018 0.011,0.013 0,0.035 0.005,0 0.009,0.001 0.014,0.002 0.01,0.003 0.01,0.005 0.01,0.013l0.201 0c0.003,0 0.003,-0.002 0.005,-0.003l0.004 -0.004c0.003,-0.002 0.007,-0.004 0.011,-0.004l0.051 0c0.011,0 0.022,0.011 0.022,0.022l0 0.047c0,0.013 -0.009,0.024 -0.023,0.024 -0.012,0 -0.017,-0.007 -0.022,-0.016 -0.007,0.005 -0.074,0.074 -0.082,0.082 -0.007,0.007 -0.013,0.013 -0.02,0.02 -0.006,0.006 -0.014,0.017 -0.026,0.012 -0.01,-0.004 -0.031,-0.031 -0.042,-0.039 -0.008,0.006 -0.017,0.017 -0.024,0.025l-0.01 0.009c-0.001,0.002 0,0.001 -0.002,0.002l-0.025 0.026c-0.019,0.017 -0.046,-0.002 -0.037,-0.024 0.002,-0.005 0.004,-0.007 0.008,-0.011 0.006,-0.006 0.012,-0.011 0.018,-0.018 0.004,-0.004 0.013,-0.016 0.019,-0.016 0.004,0 0.008,0.004 0.008,0.008 0,0.007 -0.017,0.02 -0.022,0.025l-0.005 0.005c0,0 0,0 0,0 -0.001,0.001 -0.002,0.002 -0.003,0.003 0,0 0,0 0,0l-0.005 0.005c-0.005,0.005 -0.007,0.013 0.003,0.013 0.005,0 0.008,-0.004 0.011,-0.007l0.046 -0.046c0.013,-0.013 0.019,-0.023 0.035,-0.007 0.009,0.009 0.026,0.023 0.032,0.033 0.008,-0.006 0.029,-0.029 0.037,-0.037l0.072 -0.072c0.003,-0.003 0.015,-0.016 0.019,-0.018 0.004,-0.001 0.009,0.002 0.01,0.007 0.001,0.003 0,0.013 0,0.017 0.002,0.001 0.003,0.003 0.005,0.003 0.003,0 0.008,0 0.008,-0.005l0 -0.051c0,-0.002 -0.002,-0.005 -0.005,-0.005 -0.013,0 -0.043,-0.001 -0.055,0.001 -0.002,0.011 0,0.013 0.014,0.012 0.005,0 0.012,0.001 0.012,0.007 0,0.006 -0.005,0.009 -0.009,0.013l-0.088 0.089c-0.006,0.006 -0.014,0.017 -0.025,0.012 -0.006,-0.003 -0.037,-0.034 -0.041,-0.039l-0.02 0.018c0,0.001 0,0.001 -0.001,0.001 -0.001,0.001 -0.001,0.002 -0.002,0.002 -0.004,0.005 -0.013,0.005 -0.014,-0.003 -0.001,-0.006 0.012,-0.016 0.016,-0.02 0.014,-0.014 0.02,-0.022 0.035,-0.006 0.01,0.009 0.025,0.022 0.032,0.032l0.07 -0.07 -0.209 0c-0.001,0.006 -0.015,0.018 -0.019,0.021 -0.01,0.008 -0.017,-0.006 -0.027,-0.008 0,0.004 -0.002,0.013 -0.003,0.016 -0.003,0.012 -0.02,0.009 -0.031,0.009 -0.013,0 -0.009,-0.016 -0.014,-0.025 -0.008,0.002 -0.016,0.017 -0.026,0.008 -0.004,-0.004 -0.018,-0.016 -0.018,-0.021l-0.035 0 0 0.223c0,0.005 0.005,0.011 0.008,0.013 0.008,0.008 0.03,0.006 0.042,0.006 0,-0.007 0.003,-0.015 0.006,-0.019 0.031,-0.05 0.098,-0.026 0.102,0.019 0.027,0 0.27,0.001 0.279,-0.001 0.008,-0.002 0.014,-0.008 0.016,-0.016 0.003,-0.011 0.001,-0.103 0.001,-0.122 0,-0.016 -0.001,-0.032 0,-0.047 0,-0.008 0.008,-0.011 0.013,-0.006 0.002,0.001 0.002,0.003 0.002,0.006l0 0.166c0,0.01 -0.005,0.019 -0.009,0.024 -0.004,0.004 -0.015,0.011 -0.023,0.011l-0.119 0c0,0.008 0.007,0.028 0.009,0.038 0.003,0.012 0.006,0.024 0.009,0.036 0.003,0.012 0.008,0.025 0.01,0.037 0.002,0.014 -0.009,0.023 -0.021,0.024zm-0.036 -0.135c0.018,0 0.01,-0.005 0.019,0.027 0.003,0.01 0.005,0.02 0.008,0.03 0.001,0.007 0.014,0.054 0.014,0.06 -0.012,0.008 -0.012,-0.001 -0.014,-0.008 -0.003,-0.01 -0.027,-0.104 -0.027,-0.109zm-0.159 0.12c-0.008,0 -0.007,-0.005 -0.005,-0.011 0.001,-0.006 0.002,-0.01 0.004,-0.016l0.017 -0.065c0.001,-0.003 0.005,-0.007 0.007,-0.012 0.002,-0.005 0.005,-0.011 0.005,-0.016l0.008 0c-0.002,0.003 -0.003,0.011 -0.004,0.015l-0.024 0.092c-0.001,0.005 -0.002,0.013 -0.008,0.013zm-0.026 -0.089c-0.02,0 -0.039,-0.017 -0.039,-0.036 0,-0.013 0.002,-0.021 0.011,-0.029 0.023,-0.024 0.066,-0.011 0.066,0.028 0,0.02 -0.018,0.037 -0.038,0.037zm-0.061 -0.304l-0.043 0c0,-0.013 0.009,-0.021 0.021,-0.022 0,0.018 0.013,0.011 0.024,0.017 -0.001,0.004 -0.002,0.001 -0.002,0.005zm0.119 -0.005c0.022,-0.006 0.024,-0.003 0.024,-0.017l0.201 0c0.001,0.005 0.002,0.008 0.005,0.011 0.002,0.002 0.006,0.005 0.01,0.006 0,0.002 -0.002,0.005 -0.005,0.005l-0.23 0c-0.003,0 -0.004,-0.003 -0.005,-0.005zm-0.11 -0.068l0.008 -0.008c0.009,0.003 0.009,0.01 0.021,0.01 0.013,0 0.016,-0.015 0.017,-0.026l0.012 0c0,0.003 0.003,0.016 0.004,0.018 0.002,0.005 0.008,0.008 0.015,0.008 0.004,0 0.011,-0.006 0.017,-0.01l0.009 0.008c-0.003,0.009 -0.01,0.009 -0.01,0.021 0,0.013 0.016,0.016 0.026,0.016l0 0.012c-0.01,0.003 -0.019,0.002 -0.023,0.008 -0.007,0.012 0,0.019 0.008,0.03l-0.009 0.008c-0.009,-0.005 -0.013,-0.01 -0.019,-0.01 -0.014,0 -0.017,0.012 -0.018,0.025l-0.012 0c-0.003,-0.012 -0.002,-0.025 -0.02,-0.025 -0.004,0 -0.014,0.008 -0.018,0.01l-0.008 -0.008c0.003,-0.006 0.01,-0.013 0.01,-0.019 0,-0.017 -0.014,-0.016 -0.025,-0.019l0 -0.012c0.002,0 0.015,-0.003 0.017,-0.004 0.006,-0.002 0.008,-0.009 0.008,-0.016l-0.01 -0.017z"/>
 </g>
</svg>
