<?xml version="1.0" encoding="UTF-8"?>
<!DOCTYPE svg PUBLIC "-//W3C//DTD SVG 1.1//EN" "http://www.w3.org/Graphics/SVG/1.1/DTD/svg11.dtd">
<!-- Creator: CorelDRAW 2018 (64 Bit) -->
<svg xmlns="http://www.w3.org/2000/svg" xml:space="preserve" width="65px" height="40px" version="1.1" style="shape-rendering:geometricPrecision; text-rendering:geometricPrecision; image-rendering:optimizeQuality; fill-rule:evenodd; clip-rule:evenodd"
viewBox="0 0 13.114 8.09"
 xmlns:xlink="http://www.w3.org/1999/xlink">
 <defs>
  <style type="text/css">
   <![CDATA[
    .fil1 {fill:white}
    .fil0 {fill:white;fill-rule:nonzero}
    .fil2 {fill:white;fill-opacity:0.501961}
   ]]>
  </style>
 </defs>
 <g id="Conteúdo_x0020_de_x0020_símbolos">
  <metadata id="CorelCorpID_0Corel-Layer"/>
  <g id="_2662910126528">
   <path class="fil0" d="M1.57 7.338l0.298 0 -0.117 0.581c-0.071,0.055 -0.154,0.097 -0.248,0.127 -0.094,0.029 -0.191,0.044 -0.292,0.044 -0.141,0 -0.264,-0.026 -0.369,-0.077 -0.104,-0.051 -0.185,-0.123 -0.242,-0.215 -0.058,-0.093 -0.086,-0.2 -0.086,-0.321 0,-0.16 0.037,-0.304 0.111,-0.433 0.074,-0.129 0.178,-0.23 0.312,-0.303 0.134,-0.074 0.289,-0.11 0.464,-0.11 0.134,0 0.251,0.021 0.349,0.062 0.099,0.042 0.179,0.103 0.239,0.184l-0.234 0.189c-0.047,-0.055 -0.1,-0.095 -0.159,-0.12 -0.059,-0.025 -0.129,-0.037 -0.209,-0.037 -0.108,0 -0.203,0.024 -0.285,0.071 -0.082,0.048 -0.145,0.114 -0.19,0.197 -0.045,0.083 -0.068,0.177 -0.068,0.28 0,0.109 0.036,0.195 0.106,0.259 0.071,0.064 0.172,0.096 0.303,0.096 0.084,0 0.162,-0.017 0.234,-0.051l0.083 -0.423zm2.66 -0.246c0,0.132 -0.035,0.245 -0.106,0.339 -0.072,0.094 -0.17,0.16 -0.297,0.199l0.246 0.436 -0.344 0 -0.222 -0.395 -0.278 0 -0.079 0.395 -0.328 0 0.282 -1.411 0.574 0c0.175,0 0.311,0.038 0.407,0.115 0.097,0.076 0.145,0.184 0.145,0.322zm-0.673 0.319c0.109,0 0.193,-0.025 0.253,-0.075 0.06,-0.05 0.09,-0.121 0.09,-0.213 0,-0.068 -0.023,-0.118 -0.069,-0.152 -0.045,-0.033 -0.11,-0.05 -0.195,-0.05l-0.258 0 -0.099 0.49 0.278 0zm2.276 0.679c-0.141,0 -0.263,-0.026 -0.367,-0.077 -0.103,-0.051 -0.183,-0.123 -0.238,-0.215 -0.055,-0.093 -0.082,-0.2 -0.082,-0.321 0,-0.16 0.036,-0.304 0.11,-0.432 0.073,-0.128 0.175,-0.229 0.308,-0.303 0.132,-0.074 0.284,-0.111 0.454,-0.111 0.141,0 0.264,0.025 0.367,0.076 0.104,0.051 0.183,0.123 0.238,0.216 0.055,0.093 0.083,0.2 0.083,0.32 0,0.16 -0.037,0.304 -0.11,0.433 -0.074,0.128 -0.176,0.229 -0.309,0.303 -0.132,0.074 -0.283,0.111 -0.454,0.111zm0.028 -0.278c0.104,0 0.194,-0.025 0.272,-0.075 0.078,-0.049 0.138,-0.116 0.18,-0.199 0.041,-0.084 0.062,-0.176 0.062,-0.276 0,-0.108 -0.034,-0.193 -0.101,-0.257 -0.067,-0.064 -0.162,-0.096 -0.284,-0.096 -0.103,0 -0.194,0.025 -0.272,0.074 -0.078,0.05 -0.138,0.117 -0.179,0.2 -0.042,0.083 -0.063,0.175 -0.063,0.276 0,0.108 0.034,0.193 0.101,0.257 0.067,0.064 0.162,0.096 0.284,0.096zm2.405 0.278c-0.178,0 -0.317,-0.044 -0.417,-0.132 -0.101,-0.088 -0.152,-0.209 -0.152,-0.362 0,-0.044 0.006,-0.095 0.017,-0.151l0.157 -0.79 0.328 0 -0.157 0.784c-0.008,0.044 -0.012,0.084 -0.012,0.119 0,0.085 0.023,0.148 0.069,0.19 0.047,0.043 0.114,0.064 0.203,0.064 0.099,0 0.179,-0.03 0.238,-0.089 0.059,-0.059 0.102,-0.154 0.129,-0.284l0.157 -0.784 0.32 0 -0.159 0.804c-0.086,0.421 -0.326,0.631 -0.721,0.631zm2.574 -1.435c0.176,0 0.312,0.039 0.408,0.116 0.096,0.077 0.144,0.185 0.144,0.323 0,0.119 -0.028,0.222 -0.084,0.31 -0.056,0.088 -0.135,0.155 -0.238,0.202 -0.102,0.047 -0.224,0.071 -0.363,0.071l-0.315 0 -0.076 0.389 -0.329 0 0.282 -1.411 0.571 0zm-0.119 0.756c0.108,0 0.192,-0.025 0.252,-0.075 0.059,-0.05 0.088,-0.121 0.088,-0.213 0,-0.068 -0.022,-0.118 -0.067,-0.152 -0.045,-0.033 -0.11,-0.05 -0.195,-0.05l-0.256 0 -0.098 0.49 0.276 0z"/>
   <path class="fil1" d="M10.134 3.233c-0.008,0.098 -0.012,0.188 -0.012,0.27 0,0.204 0.022,0.365 0.066,0.482 0.097,0.238 0.333,0.362 0.707,0.372 0.03,0 0.149,0 0.358,0 0.209,0 0.618,-0.022 1.226,-0.066l-0.146 0.934c-0.258,0.093 -0.511,0.152 -0.759,0.179 -0.248,0.027 -0.48,0.04 -0.697,0.04 -0.216,0 -0.373,0 -0.47,0 -0.331,-0.005 -0.607,-0.08 -0.829,-0.226 -0.221,-0.146 -0.38,-0.348 -0.478,-0.606 -0.121,-0.321 -0.182,-0.664 -0.182,-1.029 0,-0.116 0.003,-0.232 0.009,-0.35l1.207 0z"/>
   <path class="fil1" d="M9.684 0.639c0.175,-0.222 0.392,-0.384 0.65,-0.486 0.257,-0.102 0.583,-0.153 0.977,-0.153 0.395,0 0.719,0.019 0.975,0.058 0.255,0.039 0.531,0.112 0.828,0.219l-0.153 0.934c-0.667,-0.082 -1.173,-0.124 -1.518,-0.124 -0.005,0 -0.011,0 -0.018,0 -0.008,0 -0.035,0 -0.081,0 -0.046,0 -0.089,0.002 -0.127,0.004 -0.039,0.002 -0.093,0.009 -0.161,0.018 -0.068,0.01 -0.12,0.023 -0.157,0.04 -0.036,0.017 -0.083,0.045 -0.139,0.084 -0.055,0.039 -0.1,0.085 -0.135,0.139 -0.034,0.054 -0.074,0.122 -0.12,0.204 -0.046,0.083 -0.084,0.178 -0.113,0.285 -0.036,0.124 -0.069,0.253 -0.1,0.387l-1.242 0c0.058,-0.3 0.129,-0.574 0.214,-0.821 0.105,-0.304 0.245,-0.567 0.42,-0.788z"/>
   <path class="fil1" d="M1.051 0.248c0.136,-0.073 0.271,-0.123 0.405,-0.149 0.134,-0.027 0.244,-0.041 0.332,-0.041 0.088,0 0.136,0 0.146,0 1.075,0.02 1.822,0.059 2.24,0.117l-0.16 1 -1.927 0c-0.238,0 -0.379,0.095 -0.423,0.285 -0.005,0.029 -0.012,0.07 -0.022,0.124l-0.088 0.583 1.942 0.081 -0.161 0.985 -1.963 0.066 -0.102 0.627c-0.029,0.185 0.005,0.297 0.102,0.336 0.073,0.029 0.17,0.044 0.292,0.044l1.861 0 -0.161 0.992c-0.345,0.044 -0.941,0.08 -1.788,0.11l-0.423 0.014c-0.024,0 -0.064,0 -0.12,0 -0.056,0 -0.133,-0.007 -0.23,-0.022 -0.098,-0.014 -0.205,-0.048 -0.321,-0.102 -0.321,-0.151 -0.482,-0.423 -0.482,-0.817 0,-0.078 0.005,-0.161 0.015,-0.248l0.489 -3.065c0.073,-0.463 0.255,-0.769 0.547,-0.92z"/>
   <polygon class="fil2" points="4.412,2.516 10.249,2.516 10.177,2.965 4.341,2.965 "/>
   <path class="fil0" d="M7.019 0.065c0.291,0 0.54,0.054 0.747,0.161 0.206,0.107 0.365,0.248 0.477,0.422 0.199,0.326 0.299,0.768 0.299,1.327 0,0.272 -0.027,0.588 -0.08,0.947 -0.185,1.21 -0.559,1.963 -1.123,2.26 -0.282,0.145 -0.639,0.218 -1.071,0.218l-2.318 0 0.344 -2.167 1.191 0 -0.179 1.132 0.933 0c0.282,0 0.503,-0.133 0.663,-0.4 0.16,-0.268 0.284,-0.673 0.372,-1.218 0.053,-0.398 0.08,-0.693 0.08,-0.885 0,-0.192 -0.028,-0.345 -0.084,-0.459 -0.056,-0.114 -0.129,-0.193 -0.219,-0.237 -0.09,-0.044 -0.205,-0.066 -0.346,-0.066l-0.882 0 -0.182 1.148 -1.191 0 0.346 -2.183c0,0 0.741,0 2.223,0z"/>
  </g>
 </g>
</svg>
