<?xml version="1.0" encoding="UTF-8"?>
<!DOCTYPE svg PUBLIC "-//W3C//DTD SVG 1.1//EN" "http://www.w3.org/Graphics/SVG/1.1/DTD/svg11.dtd">
<!-- Creator: CorelDRAW 2018 (64 Bit) -->
<svg xmlns="http://www.w3.org/2000/svg" xml:space="preserve" width="26px" height="26px" version="1.1" style="shape-rendering:geometricPrecision; text-rendering:geometricPrecision; image-rendering:optimizeQuality; fill-rule:evenodd; clip-rule:evenodd"
viewBox="0 0 0.057 0.057"
 xmlns:xlink="http://www.w3.org/1999/xlink">
 <defs>
  <style type="text/css">
   <![CDATA[
    .fil0 {fill:#606062}
    .fil1 {fill:#76C04E}
   ]]>
  </style>
 </defs>
 <g id="Camada_x0020_1">
  <metadata id="CorelCorpID_0Corel-Layer"/>
  <g id="_2698643124160">
   <rect class="fil0" transform="matrix(0.384571 -0.384569 0.384571 0.384569 -0.00199477 0.028693)" width="0.08" height="0.08" rx="0.009" ry="0.009"/>
   <g>
    <rect class="fil1" transform="matrix(0.165198 0.165198 -0.151433 0.151433 0.0410267 0.0264768)" width="0.013" height="0.08"/>
    <rect class="fil1" transform="matrix(0.165198 -0.165198 0.151433 0.151433 0.0288377 0.0187201)" width="0.013" height="0.08"/>
   </g>
  </g>
 </g>
</svg>
